\relax 
\babel@aux{english}{}
\@writefile{toc}{\contentsline {section}{\numberline {1}Gi\IeC {\'\ohorn }i thi\IeC {\d \ecircumflex }u \IeC {\dj }\IeC {\`\ecircumflex } t\IeC {\`a}i}{2}}
\@writefile{toc}{\contentsline {section}{\numberline {2}Ph\IeC {\^a}n t\IeC {\'\i }ch nghi\IeC {\d \ecircumflex }p v\IeC {\d u}}{2}}
\@writefile{lof}{\contentsline {figure}{\numberline {1}{\ignorespaces B\IeC {\d a}n \IeC {\dj }\IeC {\~a} t\IeC {\`\uhorn }ng mua \IeC {\dj }\IeC {\`\ocircumflex } \IeC {\dj }i ph\IeC {\horn u}\IeC {\d \ohorn }t th\IeC {\^o}ng qua internet ch\IeC {\horn u}a?\relax }}{2}}
\@writefile{lof}{\contentsline {figure}{\numberline {2}{\ignorespaces B\IeC {\d a}n c\IeC {\'o} ngh\IeC {\~\i } website c\IeC {\`\acircumflex }n c\IeC {\'o} ch\IeC {\'\uhorn }c n\IeC {\u a}ng gi\IeC {\'u}p kh\IeC {\'a}ch h\IeC {\`a}ng t\IeC {\d a}o t\IeC {\`a}i kho\IeC {\h a}n, gi\IeC {\'u}p cho l\IeC {\`\acircumflex }n mua h\IeC {\`a}ng sau tr\IeC {\h \ohorn } n\IeC {\^e}n nhanh ch\IeC {\'o}ng h\IeC {\horn o}n kh\IeC {\^o}ng? (1 l\IeC {\`a} r\IeC {\'\acircumflex }t kh\IeC {\^o}ng \IeC {\dj }\IeC {\`\ocircumflex }ng \IeC {\'y}, 10 l\IeC {\`a} r\IeC {\'\acircumflex }t \IeC {\dj }\IeC {\`\ocircumflex }ng \IeC {\'y})\relax }}{2}}
\@writefile{lof}{\contentsline {figure}{\numberline {3}{\ignorespaces Khi s\IeC {\h \uhorn } d\IeC {\d u}ng website th\IeC {\horn u}\IeC {\horn o}ng m\IeC {\d a}i \IeC {\dj }i\IeC {\d \ecircumflex }n t\IeC {\h \uhorn } \IeC {\dj }\IeC {\h \ecircumflex } mua h\IeC {\`a}ng, b\IeC {\d a}n c\IeC {\'o} hay d\IeC {\`u}ng t\IeC {\'\i }nh n\IeC {\u a}ng so s\IeC {\'a}nh s\IeC {\h a}n ph\IeC {\h \acircumflex }m c\IeC {\h u}a trang web (1 l\IeC {\`a} r\IeC {\'\acircumflex }t \IeC {\'\i }t khi, 10 l\IeC {\`a} r\IeC {\'\acircumflex }t nhi\IeC {\`\ecircumflex }u)\relax }}{3}}
\@writefile{lof}{\contentsline {figure}{\numberline {4}{\ignorespaces B\IeC {\d a}n c\IeC {\'o} ngh\IeC {\~\i } website c\IeC {\`\acircumflex }n c\IeC {\'o} t\IeC {\'\i }nh n\IeC {\u a}ng t\IeC {\`\i }m ki\IeC {\'\ecircumflex }m n\IeC {\^a}ng cao kh\IeC {\^o}ng? (l\IeC {\d o}c v\IeC {\`\ecircumflex } gi\IeC {\'a} s\IeC {\h a}n ph\IeC {\h \acircumflex }m, t\IeC {\'\i }nh n\IeC {\u a}ng, h\IeC {\~a}ng s\IeC {\h a}n xu\IeC {\'\acircumflex }t,...) (1 l\IeC {\`a} r\IeC {\'\acircumflex }t kh\IeC {\^o}ng \IeC {\dj }\IeC {\`\ocircumflex }ng \IeC {\'y}, 10 l\IeC {\`a} r\IeC {\'\acircumflex }t \IeC {\dj }\IeC {\`\ocircumflex }ng \IeC {\'y})\relax }}{3}}
\@writefile{lof}{\contentsline {figure}{\numberline {5}{\ignorespaces B\IeC {\d a}n c\IeC {\'o} ngh\IeC {\~\i } website c\IeC {\`\acircumflex }n c\IeC {\'o} t\IeC {\'\i }nh n\IeC {\u a}ng g\IeC {\d \ohorn }i \IeC {\'y} s\IeC {\h a}n ph\IeC {\h \acircumflex }m cho ng\IeC {\horn u}\IeC {\`\ohorn }i mua kh\IeC {\^o}ng? (1 l\IeC {\`a} r\IeC {\'\acircumflex }t kh\IeC {\^o}ng \IeC {\dj }\IeC {\`\ocircumflex }ng \IeC {\'y}, 10 l\IeC {\`a} r\IeC {\'\acircumflex }t \IeC {\dj }\IeC {\`\ocircumflex }ng \IeC {\'y})\relax }}{3}}
\@writefile{lof}{\contentsline {figure}{\numberline {6}{\ignorespaces B\IeC {\d a}n c\IeC {\'o} ngh\IeC {\~\i } website c\IeC {\`\acircumflex }n c\IeC {\'o} t\IeC {\'\i }nh n\IeC {\u a}ng t\IeC {\`\i }m ki\IeC {\'\ecircumflex }m nhanh kh\IeC {\^o}ng? (1 l\IeC {\`a} r\IeC {\'\acircumflex }t kh\IeC {\^o}ng \IeC {\dj }\IeC {\`\ocircumflex }ng \IeC {\'y}, 10 l\IeC {\`a} r\IeC {\'\acircumflex }t \IeC {\dj }\IeC {\`\ocircumflex }ng \IeC {\'y})\relax }}{4}}
\@writefile{lof}{\contentsline {figure}{\numberline {7}{\ignorespaces B\IeC {\d a}n c\IeC {\'o} ngh\IeC {\~\i } website c\IeC {\`\acircumflex }n c\IeC {\'o} t\IeC {\'\i }nh n\IeC {\u a}ng cho ph\IeC {\'e}p \IeC {\dj }\IeC {\'a}nh gi\IeC {\'a} v\IeC {\`a} b\IeC {\`\i }nh lu\IeC {\d \acircumflex }n v\IeC {\`\ecircumflex } s\IeC {\h a}n ph\IeC {\h \acircumflex }m kh\IeC {\^o}ng? (1 l\IeC {\`a} r\IeC {\'\acircumflex }t kh\IeC {\^o}ng \IeC {\dj }\IeC {\`\ocircumflex }ng \IeC {\'y}, 10 l\IeC {\`a} r\IeC {\'\acircumflex }t \IeC {\dj }\IeC {\`\ocircumflex }ng \IeC {\'y})\relax }}{4}}
\@writefile{lof}{\contentsline {figure}{\numberline {8}{\ignorespaces B\IeC {\d a}n c\IeC {\'o} ngh\IeC {\~\i } website c\IeC {\`\acircumflex }n c\IeC {\'o} t\IeC {\'\i }nh n\IeC {\u a}ng t\IeC {\horn u} v\IeC {\'\acircumflex }n qua messenger kh\IeC {\^o}ng? (1 l\IeC {\`a} r\IeC {\'\acircumflex }t kh\IeC {\^o}ng \IeC {\dj }\IeC {\`\ocircumflex }ng \IeC {\'y}, 10 l\IeC {\`a} r\IeC {\'\acircumflex }t \IeC {\dj }\IeC {\`\ocircumflex }ng \IeC {\'y})\relax }}{4}}
\@writefile{lof}{\contentsline {figure}{\numberline {9}{\ignorespaces B\IeC {\d a}n c\IeC {\'o} mu\IeC {\'\ocircumflex }n ch\IeC {\'\uhorn }c n\IeC {\u a}ng thanh to\IeC {\'a}n nhanh m\IeC {\`a} kh\IeC {\^o}ng c\IeC {\`\acircumflex }n \IeC {\dj }\IeC {\u a}ng nh\IeC {\d \acircumflex }p kh\IeC {\^o}ng?\relax }}{4}}
\@writefile{lof}{\contentsline {figure}{\numberline {10}{\ignorespaces B\IeC {\d a}n c\IeC {\'o} mu\IeC {\'\ocircumflex }n b\IeC {\h \ocircumflex } sung t\IeC {\'\i }nh n\IeC {\u a}ng g\IeC {\`\i } cho web b\IeC {\'a}n \IeC {\dj }\IeC {\`\ocircumflex } ph\IeC {\horn u}\IeC {\d \ohorn }t online c\IeC {\h u}a m\IeC {\`\i }nh kh\IeC {\^o}ng?\relax }}{5}}
\@writefile{toc}{\contentsline {section}{\numberline {3}C\IeC {\'a}c platform \IeC {\dj }\IeC {\~a} t\IeC {\`\i }m hi\IeC {\h \ecircumflex }u}{5}}
\@writefile{toc}{\contentsline {subsection}{\numberline {3.1}WooCommerce}{5}}
\@writefile{toc}{\contentsline {subsubsection}{\numberline {3.1.1}\IeC {\horn U}u \IeC {\dj }i\IeC {\h \ecircumflex }m}{5}}
\@writefile{toc}{\contentsline {subsubsection}{\numberline {3.1.2}Nh\IeC {\horn u}\IeC {\d \ohorn }c \IeC {\dj }i\IeC {\h \ecircumflex }m}{5}}
\@writefile{toc}{\contentsline {subsection}{\numberline {3.2}X-Cart}{6}}
\@writefile{toc}{\contentsline {subsubsection}{\numberline {3.2.1}\IeC {\horn U}u \IeC {\dj }i\IeC {\h \ecircumflex }m}{6}}
\@writefile{toc}{\contentsline {subsubsection}{\numberline {3.2.2}Nh\IeC {\horn u}\IeC {\d \ohorn }c \IeC {\dj }i\IeC {\h \ecircumflex }m}{6}}
\@writefile{toc}{\contentsline {subsection}{\numberline {3.3}OpenCart}{6}}
\@writefile{toc}{\contentsline {subsubsection}{\numberline {3.3.1}\IeC {\horn U}u \IeC {\dj }i\IeC {\h \ecircumflex }m}{6}}
\@writefile{toc}{\contentsline {subsubsection}{\numberline {3.3.2}Nh\IeC {\horn u}\IeC {\d \ohorn }c \IeC {\dj }i\IeC {\h \ecircumflex }m}{6}}
\@writefile{toc}{\contentsline {section}{\numberline {4}Thi\IeC {\'\ecircumflex }t k\IeC {\'\ecircumflex } mockup v\IeC {\`a} k\IeC {\'\ecircumflex } ho\IeC {\d a}ch hi\IeC {\d \ecircumflex }n th\IeC {\d \uhorn }c}{6}}
\@writefile{toc}{\contentsline {subsection}{\numberline {4.1}mockup}{6}}
\@writefile{lof}{\contentsline {figure}{\numberline {11}{\ignorespaces Mockup trang home\relax }}{7}}
\providecommand*\caption@xref[2]{\@setref\relax\@undefined{#1}}
\newlabel{fig:mockup_home}{{11}{7}}
\@writefile{lof}{\contentsline {figure}{\numberline {12}{\ignorespaces Mockup trang search\relax }}{8}}
\newlabel{fig:mockup_search}{{12}{8}}
\@writefile{lof}{\contentsline {figure}{\numberline {13}{\ignorespaces Mockup trang chi ti\IeC {\'\ecircumflex }t s\IeC {\h a}n ph\IeC {\h \acircumflex }m\relax }}{9}}
\newlabel{fig:mockup_detail}{{13}{9}}
\@writefile{lof}{\contentsline {figure}{\numberline {14}{\ignorespaces Mockup trang thanh to\IeC {\'a}n\relax }}{10}}
\newlabel{fig:mockup_cart}{{14}{10}}
\@writefile{toc}{\contentsline {subsection}{\numberline {4.2}K\IeC {\'\ecircumflex } ho\IeC {\d a}ch hi\IeC {\d \ecircumflex }n th\IeC {\d \uhorn }c}{11}}
\@writefile{toc}{\contentsline {section}{\numberline {5}Hi\IeC {\d \ecircumflex }n th\IeC {\d \uhorn }c trang web}{11}}
\@writefile{toc}{\contentsline {section}{\numberline {6}Tri\IeC {\h \ecircumflex }n khai v\IeC {\`a} ki\IeC {\h \ecircumflex }m th\IeC {\h \uhorn }}{11}}
\bibcite{texbook}{{1}{}{{}}{{}}}
\providecommand\NAT@force@numbers{}\NAT@force@numbers
\@writefile{toc}{\contentsline {section}{\numberline {7}T\IeC {\h \ocircumflex }ng k\IeC {\'\ecircumflex }t v\IeC {\`a} \IeC {\dj }\IeC {\'a}nh gi\IeC {\'a}}{12}}
\@writefile{toc}{\contentsline {subsection}{\numberline {7.1}K\IeC {\'\ecircumflex }t qu\IeC {\h a} \IeC {\dj }\IeC {\d a}t \IeC {\dj }\IeC {\horn u}\IeC {\d \ohorn }c}{12}}
\@writefile{toc}{\contentsline {subsection}{\numberline {7.2}H\IeC {\horn u}\IeC {\'\ohorn }ng ph\IeC {\'a}t tri\IeC {\h \ecircumflex }n}{12}}
