\babel@toc {english}{}
\contentsline {section}{\numberline {1}Gi\IeC {\'\ohorn }i thi\IeC {\d \ecircumflex }u \IeC {\dj }\IeC {\`\ecircumflex } t\IeC {\`a}i}{2}
\contentsline {section}{\numberline {2}Ph\IeC {\^a}n t\IeC {\'\i }ch nghi\IeC {\d \ecircumflex }p v\IeC {\d u}}{2}
\contentsline {section}{\numberline {3}C\IeC {\'a}c platform \IeC {\dj }\IeC {\~a} t\IeC {\`\i }m hi\IeC {\h \ecircumflex }u}{5}
\contentsline {subsection}{\numberline {3.1}WooCommerce}{5}
\contentsline {subsubsection}{\numberline {3.1.1}\IeC {\horn U}u \IeC {\dj }i\IeC {\h \ecircumflex }m}{5}
\contentsline {subsubsection}{\numberline {3.1.2}Nh\IeC {\horn u}\IeC {\d \ohorn }c \IeC {\dj }i\IeC {\h \ecircumflex }m}{5}
\contentsline {subsection}{\numberline {3.2}X-Cart}{6}
\contentsline {subsubsection}{\numberline {3.2.1}\IeC {\horn U}u \IeC {\dj }i\IeC {\h \ecircumflex }m}{6}
\contentsline {subsubsection}{\numberline {3.2.2}Nh\IeC {\horn u}\IeC {\d \ohorn }c \IeC {\dj }i\IeC {\h \ecircumflex }m}{6}
\contentsline {subsection}{\numberline {3.3}OpenCart}{6}
\contentsline {subsubsection}{\numberline {3.3.1}\IeC {\horn U}u \IeC {\dj }i\IeC {\h \ecircumflex }m}{6}
\contentsline {subsubsection}{\numberline {3.3.2}Nh\IeC {\horn u}\IeC {\d \ohorn }c \IeC {\dj }i\IeC {\h \ecircumflex }m}{6}
\contentsline {section}{\numberline {4}Thi\IeC {\'\ecircumflex }t k\IeC {\'\ecircumflex } mockup v\IeC {\`a} k\IeC {\'\ecircumflex } ho\IeC {\d a}ch hi\IeC {\d \ecircumflex }n th\IeC {\d \uhorn }c}{6}
\contentsline {subsection}{\numberline {4.1}mockup}{6}
\contentsline {subsection}{\numberline {4.2}K\IeC {\'\ecircumflex } ho\IeC {\d a}ch hi\IeC {\d \ecircumflex }n th\IeC {\d \uhorn }c}{11}
\contentsline {section}{\numberline {5}Hi\IeC {\d \ecircumflex }n th\IeC {\d \uhorn }c trang web}{11}
\contentsline {section}{\numberline {6}Tri\IeC {\h \ecircumflex }n khai v\IeC {\`a} ki\IeC {\h \ecircumflex }m th\IeC {\h \uhorn }}{11}
\contentsline {section}{\numberline {7}T\IeC {\h \ocircumflex }ng k\IeC {\'\ecircumflex }t v\IeC {\`a} \IeC {\dj }\IeC {\'a}nh gi\IeC {\'a}}{12}
\contentsline {subsection}{\numberline {7.1}K\IeC {\'\ecircumflex }t qu\IeC {\h a} \IeC {\dj }\IeC {\d a}t \IeC {\dj }\IeC {\horn u}\IeC {\d \ohorn }c}{12}
\contentsline {subsection}{\numberline {7.2}H\IeC {\horn u}\IeC {\'\ohorn }ng ph\IeC {\'a}t tri\IeC {\h \ecircumflex }n}{12}
